{
    "identifier": "stoklund.Sieve",
    "name": "Sieve",
    "organization": "Jakob Stoklund Olesen",
    "description": "Sieve email filtering language.",
    "version": "1.0",
    "categories": ["languages"],
    "repository": "https://codeberg.org/stoklund/Nova-Sieve",
    "bugs": "https://codeberg.org/stoklund/Nova-Sieve/issues"
}
